[

{
  "name"   : "example1",
  "path"   : "/project2/rcc/sandbox",
  "shared" : "false",
  "users"  : [
     {      "user":"jhskone",
            "permissions":"rwx"
     },
     {      "user":"rccguest9463",
            "permissions":"rwx"
     }
            ]
},

{
  "name"   : "example2",
  "path"   : "/project2/rcc/sandbox",
  "shared" : "true",
  "users"  : [
     {      "user":"jhskone",
            "permissions":"rwx"
     },
     {      "user":"rccguest9463",
            "permissions":"rwx"
     }
            ]

}

]
